while true; do
echo "time: $(date +%s)";
cat bench.rs.tmpl | sed "s|//SHIFT_CODE|$( N=$(( 1 + $RANDOM % 1024 ));
while [[ $N > 0 ]]; do
N=$(( $N - 1 ));
echo -n 'let x=black_box(x+1);';
done )|g" >bench.rs;
RUSTFLAGS="--emit=asm"

